index
…
  # Tratamento atribuído (não randomizado)
  recebeu_tratamento = rbinom(n, 1, prob_tratamento),
  
  # Desfecho: afetado pela gravidade + ruído aleatório
  resultado_saude = gravidade_doenca + rnorm(n)
) |> select(-prob_tratamento)

Porque estudar Inferência Causal?

Simulação de um caso geral

# A tibble: 1,000 × 3
   gravidade_doenca recebeu_tratamento resultado_saude
              <int>              <int>           <dbl>
 1                0                  0           0.920
 2                1                  1           3.15 
 3                1                  1           0.546
 4                0                  0          -1.41 
 5                0                  1          -0.286
 6                1                  1           1.51 
 7                1                  0           0.751
 8                1                  1           0.296
 9                0                  0          -0.764
10                1                  0           1.41 
# ℹ 990 more rows
…
